C:\tmp\wadlPoc\src\main\java\de\bischinger\wadl\Options.java
C:\tmp\wadlPoc\src\main\java\de\bischinger\wadl\model\Option.java
C:\tmp\wadlPoc\src\main\java\de\bischinger\wadl\model\ResourceType.java
C:\tmp\wadlPoc\src\main\java\de\bischinger\wadl\model\Application.java
C:\tmp\wadlPoc\src\main\java\de\bischinger\wadl\Param.java
C:\tmp\wadlPoc\src\main\java\de\bischinger\wadl\model\Response.java
C:\tmp\wadlPoc\src\main\java\de\bischinger\wadl\WadlResourcesProducer.java
C:\tmp\wadlPoc\src\main\java\de\bischinger\wadl\model\Include.java
C:\tmp\wadlPoc\src\main\java\de\bischinger\wadl\model\ObjectFactory.java
C:\tmp\wadlPoc\src\main\java\de\bischinger\wadl\WadlApplication.java
C:\tmp\wadlPoc\src\main\java\de\bischinger\wadl\model\Grammars.java
C:\tmp\wadlPoc\src\main\java\de\bischinger\wadl\model\Resource.java
C:\tmp\wadlPoc\src\main\java\de\bischinger\wadl\model\ParamStyle.java
C:\tmp\wadlPoc\src\main\java\de\bischinger\wadl\model\Param.java
C:\tmp\wadlPoc\src\main\java\de\bischinger\wadl\model\Link.java
C:\tmp\wadlPoc\src\main\java\de\bischinger\wadl\model\Resources.java
C:\tmp\wadlPoc\src\main\java\de\bischinger\wadl\model\Representation.java
C:\tmp\wadlPoc\src\main\java\de\bischinger\wadl\Wadl.java
C:\tmp\wadlPoc\src\main\java\de\bischinger\wadl\model\Request.java
C:\tmp\wadlPoc\src\main\java\de\bischinger\wadl\WadlApplicationProducer.java
C:\tmp\wadlPoc\src\main\java\de\bischinger\wadl\model\Method.java
C:\tmp\wadlPoc\src\main\java\de\bischinger\wadl\BaseUri.java
C:\tmp\wadlPoc\src\main\java\de\bischinger\wadl\model\package-info.java
C:\tmp\wadlPoc\src\main\java\de\bischinger\wadl\model\Doc.java
C:\tmp\wadlPoc\src\main\java\de\bischinger\wadl\model\HTTPMethods.java
